^D:\CPLUSPLUS\PROJECTS\RS_TEST2\RS_TEST2\MAIN.CPP
/c /I"C:\PROGRAM FILES (X86)\INTEL REALSENSE SDK 2.0\INCLUDE" /I"C:\PROGRAM FILES (X86)\INTEL REALSENSE SDK 2.0\THIRD-PARTY\\" /I"C:\PROGRAM FILES (X86)\INTEL REALSENSE SDK 2.0\INCLUDE" /I"C:\PROGRAM FILES (X86)\INTEL REALSENSE SDK 2.0\THIRD-PARTY\\" /I"C:\PROGRAM FILES (X86)\INTEL REALSENSE SDK 2.0\THIRD-PARTY\GLFW-IMGUI\INCLUDE" /I..\INCLUDE /ZI /nologo /W3 /WX- /sdl /Od /Oy- /D _MBCS /Gm /EHsc /RTC1 /MTd /GS /fp:precise /Zc:wchar_t /Zc:forScope /Zc:inline /Fo"DEBUG\\" /Fd"DEBUG\VC140.PDB" /Gd /TP /analyze- D:\CPLUSPLUS\PROJECTS\RS_TEST2\RS_TEST2\MAIN.CPP
^D:\CPLUSPLUS\PROJECTS\RS_TEST2\RS_TEST2\CONFIG.CPP
/c /I"C:\PROGRAM FILES (X86)\INTEL REALSENSE SDK 2.0\INCLUDE" /I"C:\PROGRAM FILES (X86)\INTEL REALSENSE SDK 2.0\THIRD-PARTY\\" /I"C:\PROGRAM FILES (X86)\INTEL REALSENSE SDK 2.0\INCLUDE" /I"C:\PROGRAM FILES (X86)\INTEL REALSENSE SDK 2.0\THIRD-PARTY\\" /I"C:\PROGRAM FILES (X86)\INTEL REALSENSE SDK 2.0\THIRD-PARTY\GLFW-IMGUI\INCLUDE" /I..\INCLUDE /ZI /nologo /W3 /WX- /sdl /Od /Oy- /D _MBCS /Gm /EHsc /RTC1 /MTd /GS /fp:precise /Zc:wchar_t /Zc:forScope /Zc:inline /Fo"DEBUG\\" /Fd"DEBUG\VC140.PDB" /Gd /TP /analyze- D:\CPLUSPLUS\PROJECTS\RS_TEST2\RS_TEST2\CONFIG.CPP
