^D:\CPLUSPLUS\PROJECTS\RS_TEST2\RS_TEST2\MAIN.CPP
D:\CPLUSPLUS\PROJECTS\RS_TEST2\RS_TEST2\DEBUG\VC140.PDB
D:\CPLUSPLUS\PROJECTS\RS_TEST2\RS_TEST2\DEBUG\VC140.IDB
D:\CPLUSPLUS\PROJECTS\RS_TEST2\RS_TEST2\DEBUG\MAIN.OBJ
^D:\CPLUSPLUS\PROJECTS\RS_TEST2\RS_TEST2\CONFIG.CPP|D:\CPLUSPLUS\PROJECTS\RS_TEST2\RS_TEST2\MAIN.CPP
D:\CPLUSPLUS\PROJECTS\RS_TEST2\RS_TEST2\DEBUG\VC140.PDB
D:\CPLUSPLUS\PROJECTS\RS_TEST2\RS_TEST2\DEBUG\VC140.IDB
D:\CPLUSPLUS\PROJECTS\RS_TEST2\RS_TEST2\DEBUG\CONFIG.OBJ
D:\CPLUSPLUS\PROJECTS\RS_TEST2\RS_TEST2\DEBUG\MAIN.OBJ
^D:\CPLUSPLUS\PROJECTS\RS_TEST2\RS_TEST2\CONFIG.CPP
D:\CPLUSPLUS\PROJECTS\RS_TEST2\RS_TEST2\DEBUG\VC140.PDB
