^D:\CPLUSPLUS\PROJECTS\RS_TEST2\RS_TEST2\DEBUG\CONFIG.OBJ|D:\CPLUSPLUS\PROJECTS\RS_TEST2\RS_TEST2\DEBUG\MAIN.OBJ|D:\CPLUSPLUS\PROJECTS\RS_TEST2\RS_TEST2\DEBUG\RS_TEST2.RES
C:\WINDOWS\GLOBALIZATION\SORTING\SORTDEFAULT.NLS
C:\PROGRAM FILES (X86)\WINDOWS KITS\8.1\LIB\WINV6.3\UM\X86\GLU32.LIB
C:\PROGRAM FILES (X86)\WINDOWS KITS\8.1\LIB\WINV6.3\UM\X86\OPENGL32.LIB
C:\PROGRAM FILES (X86)\INTEL REALSENSE SDK 2.0\LIB\X86\REALSENSE2.LIB
C:\PROGRAM FILES (X86)\INTEL REALSENSE SDK 2.0\THIRD-PARTY\GLFW-IMGUI\LIB\X86\GLFW-IMGUI.LIB
C:\PROGRAM FILES (X86)\WINDOWS KITS\8.1\LIB\WINV6.3\UM\X86\KERNEL32.LIB
C:\PROGRAM FILES (X86)\WINDOWS KITS\8.1\LIB\WINV6.3\UM\X86\USER32.LIB
C:\PROGRAM FILES (X86)\WINDOWS KITS\8.1\LIB\WINV6.3\UM\X86\GDI32.LIB
C:\PROGRAM FILES (X86)\WINDOWS KITS\8.1\LIB\WINV6.3\UM\X86\WINSPOOL.LIB
C:\PROGRAM FILES (X86)\WINDOWS KITS\8.1\LIB\WINV6.3\UM\X86\COMDLG32.LIB
C:\PROGRAM FILES (X86)\WINDOWS KITS\8.1\LIB\WINV6.3\UM\X86\ADVAPI32.LIB
C:\PROGRAM FILES (X86)\WINDOWS KITS\8.1\LIB\WINV6.3\UM\X86\SHELL32.LIB
C:\PROGRAM FILES (X86)\WINDOWS KITS\8.1\LIB\WINV6.3\UM\X86\OLE32.LIB
C:\PROGRAM FILES (X86)\WINDOWS KITS\8.1\LIB\WINV6.3\UM\X86\OLEAUT32.LIB
C:\PROGRAM FILES (X86)\WINDOWS KITS\8.1\LIB\WINV6.3\UM\X86\UUID.LIB
C:\PROGRAM FILES (X86)\WINDOWS KITS\8.1\LIB\WINV6.3\UM\X86\ODBC32.LIB
C:\PROGRAM FILES (X86)\WINDOWS KITS\8.1\LIB\WINV6.3\UM\X86\ODBCCP32.LIB
D:\CPLUSPLUS\PROJECTS\RS_TEST2\LIB\MSW\X86\CINDER-V140_D.LIB
D:\CPLUSPLUS\PROJECTS\RS_TEST2\RS_TEST2\DEBUG\RS_TEST2.RES
D:\CPLUSPLUS\PROJECTS\RS_TEST2\RS_TEST2\DEBUG\CONFIG.OBJ
D:\CPLUSPLUS\PROJECTS\RS_TEST2\RS_TEST2\DEBUG\MAIN.OBJ
C:\WINDOWS\SYSTEM32\TZRES.DLL
D:\MICROSOFT VISUAL STUDIO 14.0\VC\LIB\LIBCPMTD.LIB
D:\MICROSOFT VISUAL STUDIO 14.0\VC\LIB\LIBCMTD.LIB
D:\MICROSOFT VISUAL STUDIO 14.0\VC\LIB\OLDNAMES.LIB
D:\MICROSOFT VISUAL STUDIO 14.0\VC\LIB\LIBVCRUNTIMED.LIB
C:\PROGRAM FILES (X86)\WINDOWS KITS\10\LIB\10.0.10240.0\UCRT\X86\LIBUCRTD.LIB
