d:\cplusplus\projects\rs_test2\rs_test2\debug\vc140.pdb
d:\cplusplus\projects\rs_test2\rs_test2\debug\vc140.idb
d:\cplusplus\projects\rs_test2\rs_test2\debug\main.obj
d:\cplusplus\projects\rs_test2\rs_test2\debug\rs_test2.res
d:\cplusplus\projects\rs_test2\debug\rs_test2.pdb
d:\cplusplus\projects\rs_test2\rs_test2\debug\rs_test2.tlog\cl.command.1.tlog
d:\cplusplus\projects\rs_test2\rs_test2\debug\rs_test2.tlog\cl.read.1.tlog
d:\cplusplus\projects\rs_test2\rs_test2\debug\rs_test2.tlog\cl.write.1.tlog
d:\cplusplus\projects\rs_test2\rs_test2\debug\rs_test2.tlog\link-cvtres.read.1.tlog
d:\cplusplus\projects\rs_test2\rs_test2\debug\rs_test2.tlog\link-cvtres.write.1.tlog
d:\cplusplus\projects\rs_test2\rs_test2\debug\rs_test2.tlog\link-rc.read.1.tlog
d:\cplusplus\projects\rs_test2\rs_test2\debug\rs_test2.tlog\link-rc.write.1.tlog
d:\cplusplus\projects\rs_test2\rs_test2\debug\rs_test2.tlog\link.command.1.tlog
d:\cplusplus\projects\rs_test2\rs_test2\debug\rs_test2.tlog\link.read.1.tlog
d:\cplusplus\projects\rs_test2\rs_test2\debug\rs_test2.tlog\link.write.1.tlog
d:\cplusplus\projects\rs_test2\rs_test2\debug\rs_test2.tlog\rc.command.1.tlog
d:\cplusplus\projects\rs_test2\rs_test2\debug\rs_test2.tlog\rc.read.1.tlog
d:\cplusplus\projects\rs_test2\rs_test2\debug\rs_test2.tlog\rc.write.1.tlog
