^D:\CPLUSPLUS\PROJECTS\RS_TEST2\RS_TEST3\MAIN.CPP
D:\CPLUSPLUS\PROJECTS\RS_TEST2\RS_TEST3\HEADER.H
C:\PROGRAM FILES (X86)\INTEL REALSENSE SDK 2.0\INCLUDE\LIBREALSENSE2\RS.HPP
C:\PROGRAM FILES (X86)\INTEL REALSENSE SDK 2.0\INCLUDE\LIBREALSENSE2\RS.H
C:\PROGRAM FILES (X86)\INTEL REALSENSE SDK 2.0\INCLUDE\LIBREALSENSE2\H\RS_TYPES.H
C:\PROGRAM FILES (X86)\INTEL REALSENSE SDK 2.0\INCLUDE\LIBREALSENSE2\H\RS_CONTEXT.H
C:\PROGRAM FILES (X86)\INTEL REALSENSE SDK 2.0\INCLUDE\LIBREALSENSE2\H\RS_DEVICE.H
C:\PROGRAM FILES (X86)\INTEL REALSENSE SDK 2.0\INCLUDE\LIBREALSENSE2\H\RS_SENSOR.H
C:\PROGRAM FILES (X86)\INTEL REALSENSE SDK 2.0\INCLUDE\LIBREALSENSE2\H\RS_FRAME.H
C:\PROGRAM FILES (X86)\INTEL REALSENSE SDK 2.0\INCLUDE\LIBREALSENSE2\H\RS_OPTION.H
C:\PROGRAM FILES (X86)\INTEL REALSENSE SDK 2.0\INCLUDE\LIBREALSENSE2\H\RS_PROCESSING.H
C:\PROGRAM FILES (X86)\INTEL REALSENSE SDK 2.0\INCLUDE\LIBREALSENSE2\H\RS_RECORD_PLAYBACK.H
C:\PROGRAM FILES (X86)\INTEL REALSENSE SDK 2.0\INCLUDE\LIBREALSENSE2\HPP\RS_TYPES.HPP
C:\PROGRAM FILES (X86)\INTEL REALSENSE SDK 2.0\INCLUDE\LIBREALSENSE2\H\RS_PIPELINE.H
C:\PROGRAM FILES (X86)\INTEL REALSENSE SDK 2.0\INCLUDE\LIBREALSENSE2\H\RS_CONFIG.H
D:\MICROSOFT VISUAL STUDIO 14.0\VC\INCLUDE\STRING
D:\MICROSOFT VISUAL STUDIO 14.0\VC\INCLUDE\ISTREAM
D:\MICROSOFT VISUAL STUDIO 14.0\VC\INCLUDE\OSTREAM
D:\MICROSOFT VISUAL STUDIO 14.0\VC\INCLUDE\IOS
D:\MICROSOFT VISUAL STUDIO 14.0\VC\INCLUDE\XLOCNUM
D:\MICROSOFT VISUAL STUDIO 14.0\VC\INCLUDE\CLIMITS
D:\MICROSOFT VISUAL STUDIO 14.0\VC\INCLUDE\YVALS.H
D:\MICROSOFT VISUAL STUDIO 14.0\VC\INCLUDE\XKEYCHECK.H
D:\MICROSOFT VISUAL STUDIO 14.0\VC\INCLUDE\CRTDEFS.H
D:\MICROSOFT VISUAL STUDIO 14.0\VC\INCLUDE\VCRUNTIME.H
D:\MICROSOFT VISUAL STUDIO 14.0\VC\INCLUDE\SAL.H
D:\MICROSOFT VISUAL STUDIO 14.0\VC\INCLUDE\CONCURRENCYSAL.H
D:\MICROSOFT VISUAL STUDIO 14.0\VC\INCLUDE\VADEFS.H
C:\PROGRAM FILES (X86)\WINDOWS KITS\10\INCLUDE\10.0.10240.0\UCRT\CORECRT.H
D:\MICROSOFT VISUAL STUDIO 14.0\VC\INCLUDE\USE_ANSI.H
D:\MICROSOFT VISUAL STUDIO 14.0\VC\INCLUDE\LIMITS.H
D:\MICROSOFT VISUAL STUDIO 14.0\VC\INCLUDE\CMATH
C:\PROGRAM FILES (X86)\WINDOWS KITS\10\INCLUDE\10.0.10240.0\UCRT\MATH.H
D:\MICROSOFT VISUAL STUDIO 14.0\VC\INCLUDE\XTGMATH.H
D:\MICROSOFT VISUAL STUDIO 14.0\VC\INCLUDE\XTR1COMMON
D:\MICROSOFT VISUAL STUDIO 14.0\VC\INCLUDE\CSTDLIB
C:\PROGRAM FILES (X86)\WINDOWS KITS\10\INCLUDE\10.0.10240.0\UCRT\STDLIB.H
C:\PROGRAM FILES (X86)\WINDOWS KITS\10\INCLUDE\10.0.10240.0\UCRT\CORECRT_MALLOC.H
C:\PROGRAM FILES (X86)\WINDOWS KITS\10\INCLUDE\10.0.10240.0\UCRT\CORECRT_SEARCH.H
C:\PROGRAM FILES (X86)\WINDOWS KITS\10\INCLUDE\10.0.10240.0\UCRT\STDDEF.H
C:\PROGRAM FILES (X86)\WINDOWS KITS\10\INCLUDE\10.0.10240.0\UCRT\CORECRT_WSTDLIB.H
D:\MICROSOFT VISUAL STUDIO 14.0\VC\INCLUDE\CSTDIO
C:\PROGRAM FILES (X86)\WINDOWS KITS\10\INCLUDE\10.0.10240.0\UCRT\STDIO.H
C:\PROGRAM FILES (X86)\WINDOWS KITS\10\INCLUDE\10.0.10240.0\UCRT\CORECRT_WSTDIO.H
C:\PROGRAM FILES (X86)\WINDOWS KITS\10\INCLUDE\10.0.10240.0\UCRT\CORECRT_STDIO_CONFIG.H
D:\MICROSOFT VISUAL STUDIO 14.0\VC\INCLUDE\STREAMBUF
D:\MICROSOFT VISUAL STUDIO 14.0\VC\INCLUDE\XIOSBASE
D:\MICROSOFT VISUAL STUDIO 14.0\VC\INCLUDE\XLOCALE
D:\MICROSOFT VISUAL STUDIO 14.0\VC\INCLUDE\CSTRING
C:\PROGRAM FILES (X86)\WINDOWS KITS\10\INCLUDE\10.0.10240.0\UCRT\STRING.H
C:\PROGRAM FILES (X86)\WINDOWS KITS\10\INCLUDE\10.0.10240.0\UCRT\CORECRT_MEMORY.H
C:\PROGRAM FILES (X86)\WINDOWS KITS\10\INCLUDE\10.0.10240.0\UCRT\CORECRT_MEMCPY_S.H
C:\PROGRAM FILES (X86)\WINDOWS KITS\10\INCLUDE\10.0.10240.0\UCRT\ERRNO.H
D:\MICROSOFT VISUAL STUDIO 14.0\VC\INCLUDE\VCRUNTIME_STRING.H
C:\PROGRAM FILES (X86)\WINDOWS KITS\10\INCLUDE\10.0.10240.0\UCRT\CORECRT_WSTRING.H
D:\MICROSOFT VISUAL STUDIO 14.0\VC\INCLUDE\STDEXCEPT
D:\MICROSOFT VISUAL STUDIO 14.0\VC\INCLUDE\EXCEPTION
D:\MICROSOFT VISUAL STUDIO 14.0\VC\INCLUDE\TYPE_TRAITS
D:\MICROSOFT VISUAL STUDIO 14.0\VC\INCLUDE\XSTDDEF
D:\MICROSOFT VISUAL STUDIO 14.0\VC\INCLUDE\CSTDDEF
D:\MICROSOFT VISUAL STUDIO 14.0\VC\INCLUDE\INITIALIZER_LIST
C:\PROGRAM FILES (X86)\WINDOWS KITS\10\INCLUDE\10.0.10240.0\UCRT\MALLOC.H
D:\MICROSOFT VISUAL STUDIO 14.0\VC\INCLUDE\VCRUNTIME_EXCEPTION.H
D:\MICROSOFT VISUAL STUDIO 14.0\VC\INCLUDE\EH.H
C:\PROGRAM FILES (X86)\WINDOWS KITS\10\INCLUDE\10.0.10240.0\UCRT\CORECRT_TERMINATE.H
D:\MICROSOFT VISUAL STUDIO 14.0\VC\INCLUDE\XSTRING
D:\MICROSOFT VISUAL STUDIO 14.0\VC\INCLUDE\XMEMORY0
D:\MICROSOFT VISUAL STUDIO 14.0\VC\INCLUDE\CSTDINT
D:\MICROSOFT VISUAL STUDIO 14.0\VC\INCLUDE\STDINT.H
D:\MICROSOFT VISUAL STUDIO 14.0\VC\INCLUDE\LIMITS
D:\MICROSOFT VISUAL STUDIO 14.0\VC\INCLUDE\YMATH.H
D:\MICROSOFT VISUAL STUDIO 14.0\VC\INCLUDE\CFLOAT
C:\PROGRAM FILES (X86)\WINDOWS KITS\10\INCLUDE\10.0.10240.0\UCRT\FLOAT.H
D:\MICROSOFT VISUAL STUDIO 14.0\VC\INCLUDE\CWCHAR
C:\PROGRAM FILES (X86)\WINDOWS KITS\10\INCLUDE\10.0.10240.0\UCRT\WCHAR.H
C:\PROGRAM FILES (X86)\WINDOWS KITS\10\INCLUDE\10.0.10240.0\UCRT\CORECRT_WCONIO.H
C:\PROGRAM FILES (X86)\WINDOWS KITS\10\INCLUDE\10.0.10240.0\UCRT\CORECRT_WCTYPE.H
C:\PROGRAM FILES (X86)\WINDOWS KITS\10\INCLUDE\10.0.10240.0\UCRT\CORECRT_WDIRECT.H
C:\PROGRAM FILES (X86)\WINDOWS KITS\10\INCLUDE\10.0.10240.0\UCRT\CORECRT_WIO.H
C:\PROGRAM FILES (X86)\WINDOWS KITS\10\INCLUDE\10.0.10240.0\UCRT\CORECRT_SHARE.H
C:\PROGRAM FILES (X86)\WINDOWS KITS\10\INCLUDE\10.0.10240.0\UCRT\CORECRT_WPROCESS.H
C:\PROGRAM FILES (X86)\WINDOWS KITS\10\INCLUDE\10.0.10240.0\UCRT\CORECRT_WTIME.H
C:\PROGRAM FILES (X86)\WINDOWS KITS\10\INCLUDE\10.0.10240.0\UCRT\SYS\STAT.H
C:\PROGRAM FILES (X86)\WINDOWS KITS\10\INCLUDE\10.0.10240.0\UCRT\SYS\TYPES.H
D:\MICROSOFT VISUAL STUDIO 14.0\VC\INCLUDE\NEW
D:\MICROSOFT VISUAL STUDIO 14.0\VC\INCLUDE\VCRUNTIME_NEW.H
D:\MICROSOFT VISUAL STUDIO 14.0\VC\INCLUDE\XUTILITY
D:\MICROSOFT VISUAL STUDIO 14.0\VC\INCLUDE\UTILITY
D:\MICROSOFT VISUAL STUDIO 14.0\VC\INCLUDE\IOSFWD
C:\PROGRAM FILES (X86)\WINDOWS KITS\10\INCLUDE\10.0.10240.0\UCRT\CRTDBG.H
D:\MICROSOFT VISUAL STUDIO 14.0\VC\INCLUDE\VCRUNTIME_NEW_DEBUG.H
D:\MICROSOFT VISUAL STUDIO 14.0\VC\INCLUDE\XATOMIC0.H
D:\MICROSOFT VISUAL STUDIO 14.0\VC\INCLUDE\INTRIN.H
D:\MICROSOFT VISUAL STUDIO 14.0\VC\INCLUDE\SETJMP.H
D:\MICROSOFT VISUAL STUDIO 14.0\VC\INCLUDE\IMMINTRIN.H
D:\MICROSOFT VISUAL STUDIO 14.0\VC\INCLUDE\WMMINTRIN.H
D:\MICROSOFT VISUAL STUDIO 14.0\VC\INCLUDE\NMMINTRIN.H
D:\MICROSOFT VISUAL STUDIO 14.0\VC\INCLUDE\SMMINTRIN.H
D:\MICROSOFT VISUAL STUDIO 14.0\VC\INCLUDE\TMMINTRIN.H
D:\MICROSOFT VISUAL STUDIO 14.0\VC\INCLUDE\PMMINTRIN.H
D:\MICROSOFT VISUAL STUDIO 14.0\VC\INCLUDE\EMMINTRIN.H
D:\MICROSOFT VISUAL STUDIO 14.0\VC\INCLUDE\XMMINTRIN.H
D:\MICROSOFT VISUAL STUDIO 14.0\VC\INCLUDE\MMINTRIN.H
D:\MICROSOFT VISUAL STUDIO 14.0\VC\INCLUDE\AMMINTRIN.H
D:\MICROSOFT VISUAL STUDIO 14.0\VC\INCLUDE\MM3DNOW.H
D:\MICROSOFT VISUAL STUDIO 14.0\VC\INCLUDE\TYPEINFO
D:\MICROSOFT VISUAL STUDIO 14.0\VC\INCLUDE\VCRUNTIME_TYPEINFO.H
D:\MICROSOFT VISUAL STUDIO 14.0\VC\INCLUDE\XLOCINFO
D:\MICROSOFT VISUAL STUDIO 14.0\VC\INCLUDE\XLOCINFO.H
C:\PROGRAM FILES (X86)\WINDOWS KITS\10\INCLUDE\10.0.10240.0\UCRT\CTYPE.H
C:\PROGRAM FILES (X86)\WINDOWS KITS\10\INCLUDE\10.0.10240.0\UCRT\LOCALE.H
D:\MICROSOFT VISUAL STUDIO 14.0\VC\INCLUDE\XFACET
D:\MICROSOFT VISUAL STUDIO 14.0\VC\INCLUDE\SYSTEM_ERROR
D:\MICROSOFT VISUAL STUDIO 14.0\VC\INCLUDE\CERRNO
C:\PROGRAM FILES (X86)\WINDOWS KITS\10\INCLUDE\10.0.10240.0\UCRT\SHARE.H
D:\MICROSOFT VISUAL STUDIO 14.0\VC\INCLUDE\VECTOR
D:\MICROSOFT VISUAL STUDIO 14.0\VC\INCLUDE\XMEMORY
D:\MICROSOFT VISUAL STUDIO 14.0\VC\INCLUDE\MEMORY
D:\MICROSOFT VISUAL STUDIO 14.0\VC\INCLUDE\FUNCTIONAL
D:\MICROSOFT VISUAL STUDIO 14.0\VC\INCLUDE\XFUNCTIONAL
D:\MICROSOFT VISUAL STUDIO 14.0\VC\INCLUDE\TUPLE
D:\MICROSOFT VISUAL STUDIO 14.0\VC\INCLUDE\ITERATOR
D:\MICROSOFT VISUAL STUDIO 14.0\VC\INCLUDE\SSTREAM
D:\MICROSOFT VISUAL STUDIO 14.0\VC\INCLUDE\CHRONO
D:\MICROSOFT VISUAL STUDIO 14.0\VC\INCLUDE\RATIO
C:\PROGRAM FILES (X86)\WINDOWS KITS\10\INCLUDE\10.0.10240.0\UCRT\TIME.H
D:\MICROSOFT VISUAL STUDIO 14.0\VC\INCLUDE\THR\XTIMEC.H
D:\MICROSOFT VISUAL STUDIO 14.0\VC\INCLUDE\THR\XTHRCOMMON.H
C:\PROGRAM FILES (X86)\INTEL REALSENSE SDK 2.0\INCLUDE\LIBREALSENSE2\HPP\RS_CONTEXT.HPP
C:\PROGRAM FILES (X86)\INTEL REALSENSE SDK 2.0\INCLUDE\LIBREALSENSE2\HPP\RS_RECORD_PLAYBACK.HPP
C:\PROGRAM FILES (X86)\INTEL REALSENSE SDK 2.0\INCLUDE\LIBREALSENSE2\HPP\RS_DEVICE.HPP
C:\PROGRAM FILES (X86)\INTEL REALSENSE SDK 2.0\INCLUDE\LIBREALSENSE2\HPP\RS_SENSOR.HPP
C:\PROGRAM FILES (X86)\INTEL REALSENSE SDK 2.0\INCLUDE\LIBREALSENSE2\HPP\RS_FRAME.HPP
C:\PROGRAM FILES (X86)\INTEL REALSENSE SDK 2.0\INCLUDE\LIBREALSENSE2\HPP\RS_PROCESSING.HPP
C:\PROGRAM FILES (X86)\INTEL REALSENSE SDK 2.0\INCLUDE\LIBREALSENSE2\HPP\RS_OPTIONS.HPP
D:\MICROSOFT VISUAL STUDIO 14.0\VC\INCLUDE\ARRAY
D:\MICROSOFT VISUAL STUDIO 14.0\VC\INCLUDE\ALGORITHM
C:\PROGRAM FILES (X86)\INTEL REALSENSE SDK 2.0\INCLUDE\LIBREALSENSE2\HPP\RS_PIPELINE.HPP
C:\PROGRAM FILES (X86)\INTEL REALSENSE SDK 2.0\INCLUDE\LIBREALSENSE2\RS_ADVANCED_MODE.HPP
C:\PROGRAM FILES (X86)\INTEL REALSENSE SDK 2.0\INCLUDE\LIBREALSENSE2\RS_ADVANCED_MODE.H
C:\PROGRAM FILES (X86)\INTEL REALSENSE SDK 2.0\INCLUDE\LIBREALSENSE2\H\RS_ADVANCED_MODE_COMMAND.H
C:\PROGRAM FILES (X86)\INTEL REALSENSE SDK 2.0\THIRD-PARTY\OPENCV-3.4\INCLUDE\OPENCV\CV.H
C:\PROGRAM FILES (X86)\INTEL REALSENSE SDK 2.0\THIRD-PARTY\OPENCV-3.4\MODULES\CORE\INCLUDE\OPENCV2\CORE\CORE_C.H
C:\PROGRAM FILES (X86)\INTEL REALSENSE SDK 2.0\THIRD-PARTY\OPENCV-3.4\MODULES\CORE\INCLUDE\OPENCV2\CORE\TYPES_C.H
C:\PROGRAM FILES (X86)\INTEL REALSENSE SDK 2.0\THIRD-PARTY\OPENCV-3.4\MODULES\CORE\INCLUDE\OPENCV2\CORE\CVDEF.H
C:\PROGRAM FILES (X86)\INTEL REALSENSE SDK 2.0\THIRD-PARTY\OPENCV-3.4\MODULES\CORE\INCLUDE\OPENCV2\CORE\HAL\INTERFACE.H
C:\PROGRAM FILES (X86)\INTEL REALSENSE SDK 2.0\THIRD-PARTY\OPENCV-3.4\MODULES\CORE\INCLUDE\OPENCV2\CORE\CV_CPU_DISPATCH.H
C:\PROGRAM FILES (X86)\WINDOWS KITS\10\INCLUDE\10.0.10240.0\UCRT\ASSERT.H
C:\PROGRAM FILES (X86)\INTEL REALSENSE SDK 2.0\THIRD-PARTY\OPENCV-3.4\MODULES\CORE\INCLUDE\OPENCV2\CORE.HPP
C:\PROGRAM FILES (X86)\INTEL REALSENSE SDK 2.0\THIRD-PARTY\OPENCV-3.4\MODULES\CORE\INCLUDE\OPENCV2\CORE\VERSION.HPP
C:\PROGRAM FILES (X86)\INTEL REALSENSE SDK 2.0\THIRD-PARTY\OPENCV-3.4\MODULES\CORE\INCLUDE\OPENCV2\CORE\BASE.HPP
C:\PROGRAM FILES (X86)\INTEL REALSENSE SDK 2.0\THIRD-PARTY\OPENCV-3.4\INCLUDE\OPENCV2\OPENCV_MODULES.HPP
C:\PROGRAM FILES (X86)\INTEL REALSENSE SDK 2.0\THIRD-PARTY\OPENCV-3.4\MODULES\CORE\INCLUDE\OPENCV2\CORE\CVSTD.HPP
D:\MICROSOFT VISUAL STUDIO 14.0\VC\INCLUDE\CCTYPE
C:\PROGRAM FILES (X86)\INTEL REALSENSE SDK 2.0\THIRD-PARTY\OPENCV-3.4\MODULES\CORE\INCLUDE\OPENCV2\CORE\PTR.INL.HPP
C:\PROGRAM FILES (X86)\INTEL REALSENSE SDK 2.0\THIRD-PARTY\OPENCV-3.4\MODULES\CORE\INCLUDE\OPENCV2\CORE\NEON_UTILS.HPP
C:\PROGRAM FILES (X86)\INTEL REALSENSE SDK 2.0\THIRD-PARTY\OPENCV-3.4\MODULES\CORE\INCLUDE\OPENCV2\CORE\VSX_UTILS.HPP
C:\PROGRAM FILES (X86)\INTEL REALSENSE SDK 2.0\THIRD-PARTY\OPENCV-3.4\MODULES\CORE\INCLUDE\OPENCV2\CORE\CHECK.HPP
C:\PROGRAM FILES (X86)\INTEL REALSENSE SDK 2.0\THIRD-PARTY\OPENCV-3.4\MODULES\CORE\INCLUDE\OPENCV2\CORE\TRAITS.HPP
C:\PROGRAM FILES (X86)\INTEL REALSENSE SDK 2.0\THIRD-PARTY\OPENCV-3.4\MODULES\CORE\INCLUDE\OPENCV2\CORE\MATX.HPP
C:\PROGRAM FILES (X86)\INTEL REALSENSE SDK 2.0\THIRD-PARTY\OPENCV-3.4\MODULES\CORE\INCLUDE\OPENCV2\CORE\SATURATE.HPP
C:\PROGRAM FILES (X86)\INTEL REALSENSE SDK 2.0\THIRD-PARTY\OPENCV-3.4\MODULES\CORE\INCLUDE\OPENCV2\CORE\FAST_MATH.HPP
C:\PROGRAM FILES (X86)\INTEL REALSENSE SDK 2.0\THIRD-PARTY\OPENCV-3.4\MODULES\CORE\INCLUDE\OPENCV2\CORE\TYPES.HPP
C:\PROGRAM FILES (X86)\INTEL REALSENSE SDK 2.0\THIRD-PARTY\OPENCV-3.4\MODULES\CORE\INCLUDE\OPENCV2\CORE\MAT.HPP
C:\PROGRAM FILES (X86)\INTEL REALSENSE SDK 2.0\THIRD-PARTY\OPENCV-3.4\MODULES\CORE\INCLUDE\OPENCV2\CORE\BUFFERPOOL.HPP
C:\PROGRAM FILES (X86)\INTEL REALSENSE SDK 2.0\THIRD-PARTY\OPENCV-3.4\MODULES\CORE\INCLUDE\OPENCV2\CORE\MAT.INL.HPP
C:\PROGRAM FILES (X86)\INTEL REALSENSE SDK 2.0\THIRD-PARTY\OPENCV-3.4\MODULES\CORE\INCLUDE\OPENCV2\CORE\PERSISTENCE.HPP
C:\PROGRAM FILES (X86)\INTEL REALSENSE SDK 2.0\THIRD-PARTY\OPENCV-3.4\MODULES\CORE\INCLUDE\OPENCV2\CORE\OPERATIONS.HPP
C:\PROGRAM FILES (X86)\INTEL REALSENSE SDK 2.0\THIRD-PARTY\OPENCV-3.4\MODULES\CORE\INCLUDE\OPENCV2\CORE\CVSTD.INL.HPP
D:\MICROSOFT VISUAL STUDIO 14.0\VC\INCLUDE\COMPLEX
D:\MICROSOFT VISUAL STUDIO 14.0\VC\INCLUDE\CCOMPLEX
D:\MICROSOFT VISUAL STUDIO 14.0\VC\INCLUDE\XCOMPLEX
C:\PROGRAM FILES (X86)\INTEL REALSENSE SDK 2.0\THIRD-PARTY\OPENCV-3.4\MODULES\CORE\INCLUDE\OPENCV2\CORE\UTILITY.HPP
C:\PROGRAM FILES (X86)\INTEL REALSENSE SDK 2.0\THIRD-PARTY\OPENCV-3.4\MODULES\CORE\INCLUDE\OPENCV2\CORE\OPTIM.HPP
C:\PROGRAM FILES (X86)\INTEL REALSENSE SDK 2.0\THIRD-PARTY\OPENCV-3.4\MODULES\CORE\INCLUDE\OPENCV2\CORE\OVX.HPP
C:\PROGRAM FILES (X86)\INTEL REALSENSE SDK 2.0\THIRD-PARTY\OPENCV-3.4\MODULES\IMGPROC\INCLUDE\OPENCV2\IMGPROC\IMGPROC_C.H
C:\PROGRAM FILES (X86)\INTEL REALSENSE SDK 2.0\THIRD-PARTY\OPENCV-3.4\MODULES\IMGPROC\INCLUDE\OPENCV2\IMGPROC\TYPES_C.H
C:\PROGRAM FILES (X86)\INTEL REALSENSE SDK 2.0\THIRD-PARTY\OPENCV-3.4\MODULES\PHOTO\INCLUDE\OPENCV2\PHOTO\PHOTO_C.H
C:\PROGRAM FILES (X86)\INTEL REALSENSE SDK 2.0\THIRD-PARTY\OPENCV-3.4\MODULES\VIDEO\INCLUDE\OPENCV2\VIDEO\TRACKING_C.H
C:\PROGRAM FILES (X86)\INTEL REALSENSE SDK 2.0\THIRD-PARTY\OPENCV-3.4\MODULES\OBJDETECT\INCLUDE\OPENCV2\OBJDETECT\OBJDETECT_C.H
D:\MICROSOFT VISUAL STUDIO 14.0\VC\INCLUDE\DEQUE
C:\PROGRAM FILES (X86)\INTEL REALSENSE SDK 2.0\THIRD-PARTY\OPENCV-3.4\INCLUDE\OPENCV2\CVCONFIG.H
C:\PROGRAM FILES (X86)\INTEL REALSENSE SDK 2.0\THIRD-PARTY\OPENCV-3.4\INCLUDE\OPENCV\HIGHGUI.H
C:\PROGRAM FILES (X86)\INTEL REALSENSE SDK 2.0\THIRD-PARTY\OPENCV-3.4\MODULES\HIGHGUI\INCLUDE\OPENCV2\HIGHGUI\HIGHGUI_C.H
C:\PROGRAM FILES (X86)\INTEL REALSENSE SDK 2.0\THIRD-PARTY\OPENCV-3.4\MODULES\IMGCODECS\INCLUDE\OPENCV2\IMGCODECS\IMGCODECS_C.H
C:\PROGRAM FILES (X86)\INTEL REALSENSE SDK 2.0\THIRD-PARTY\OPENCV-3.4\MODULES\VIDEOIO\INCLUDE\OPENCV2\VIDEOIO\VIDEOIO_C.H
D:\CPLUSPLUS\PROJECTS\RS_TEST2\INCLUDE\CINDER\APP\APP.H
D:\CPLUSPLUS\PROJECTS\RS_TEST2\INCLUDE\CINDER\CINDER.H
D:\CPLUSPLUS\PROJECTS\RS_TEST2\INCLUDE\GLM\FWD.HPP
D:\CPLUSPLUS\PROJECTS\RS_TEST2\INCLUDE\GLM\DETAIL\TYPE_INT.HPP
D:\CPLUSPLUS\PROJECTS\RS_TEST2\INCLUDE\GLM\DETAIL\SETUP.HPP
D:\MICROSOFT VISUAL STUDIO 14.0\VC\INCLUDE\CASSERT
D:\CPLUSPLUS\PROJECTS\RS_TEST2\INCLUDE\GLM\DETAIL\TYPE_FLOAT.HPP
D:\CPLUSPLUS\PROJECTS\RS_TEST2\INCLUDE\GLM\DETAIL\TYPE_VEC.HPP
D:\CPLUSPLUS\PROJECTS\RS_TEST2\INCLUDE\GLM\DETAIL\PRECISION.HPP
D:\CPLUSPLUS\PROJECTS\RS_TEST2\INCLUDE\GLM\DETAIL\TYPE_MAT.HPP
D:\CPLUSPLUS\PROJECTS\RS_TEST2\INCLUDE\CINDER\APP\MSW\APPMSW.H
D:\CPLUSPLUS\PROJECTS\RS_TEST2\INCLUDE\CINDER\APP\APPBASE.H
D:\CPLUSPLUS\PROJECTS\RS_TEST2\INCLUDE\CINDER\APP\PLATFORM.H
D:\CPLUSPLUS\PROJECTS\RS_TEST2\INCLUDE\CINDER\DATASOURCE.H
D:\CPLUSPLUS\PROJECTS\RS_TEST2\INCLUDE\CINDER\URL.H
D:\CPLUSPLUS\PROJECTS\RS_TEST2\INCLUDE\CINDER\STREAM.H
D:\CPLUSPLUS\PROJECTS\RS_TEST2\INCLUDE\CINDER\BUFFER.H
D:\CPLUSPLUS\PROJECTS\RS_TEST2\INCLUDE\CINDER\EXCEPTION.H
D:\CPLUSPLUS\PROJECTS\RS_TEST2\INCLUDE\CINDER\FILESYSTEM.H
D:\MICROSOFT VISUAL STUDIO 14.0\VC\INCLUDE\FILESYSTEM
D:\MICROSOFT VISUAL STUDIO 14.0\VC\INCLUDE\CODECVT
D:\MICROSOFT VISUAL STUDIO 14.0\VC\INCLUDE\LOCALE
D:\MICROSOFT VISUAL STUDIO 14.0\VC\INCLUDE\XLOCBUF
D:\MICROSOFT VISUAL STUDIO 14.0\VC\INCLUDE\XLOCMES
D:\MICROSOFT VISUAL STUDIO 14.0\VC\INCLUDE\XLOCMON
D:\MICROSOFT VISUAL STUDIO 14.0\VC\INCLUDE\XLOCTIME
D:\MICROSOFT VISUAL STUDIO 14.0\VC\INCLUDE\CTIME
D:\MICROSOFT VISUAL STUDIO 14.0\VC\INCLUDE\LIST
D:\CPLUSPLUS\PROJECTS\RS_TEST2\INCLUDE\CINDER\NONCOPYABLE.H
D:\MICROSOFT VISUAL STUDIO 14.0\VC\INCLUDE\IOSTREAM
D:\MICROSOFT VISUAL STUDIO 14.0\VC\INCLUDE\MAP
D:\MICROSOFT VISUAL STUDIO 14.0\VC\INCLUDE\XTREE
D:\CPLUSPLUS\PROJECTS\RS_TEST2\INCLUDE\CINDER\APP\RENDERER.H
D:\CPLUSPLUS\PROJECTS\RS_TEST2\INCLUDE\CINDER\SURFACE.H
D:\CPLUSPLUS\PROJECTS\RS_TEST2\INCLUDE\CINDER\AREA.H
D:\CPLUSPLUS\PROJECTS\RS_TEST2\INCLUDE\CINDER\MATRIX.H
D:\CPLUSPLUS\PROJECTS\RS_TEST2\INCLUDE\CINDER\CINDERMATH.H
D:\CPLUSPLUS\PROJECTS\RS_TEST2\INCLUDE\CINDER\CINDERGLM.H
D:\CPLUSPLUS\PROJECTS\RS_TEST2\INCLUDE\GLM\GTC\TYPE_PTR.HPP
D:\CPLUSPLUS\PROJECTS\RS_TEST2\INCLUDE\GLM\GTC\QUATERNION.HPP
D:\CPLUSPLUS\PROJECTS\RS_TEST2\INCLUDE\GLM\MAT3X3.HPP
D:\CPLUSPLUS\PROJECTS\RS_TEST2\INCLUDE\GLM\DETAIL\TYPE_MAT3X3.HPP
D:\CPLUSPLUS\PROJECTS\RS_TEST2\INCLUDE\GLM\DETAIL\TYPE_VEC3.HPP
D:\CPLUSPLUS\PROJECTS\RS_TEST2\INCLUDE\GLM\DETAIL\TYPE_VEC3.INL
D:\CPLUSPLUS\PROJECTS\RS_TEST2\INCLUDE\GLM\DETAIL\TYPE_MAT3X3.INL
D:\CPLUSPLUS\PROJECTS\RS_TEST2\INCLUDE\GLM\MAT4X4.HPP
D:\CPLUSPLUS\PROJECTS\RS_TEST2\INCLUDE\GLM\DETAIL\TYPE_MAT4X4.HPP
D:\CPLUSPLUS\PROJECTS\RS_TEST2\INCLUDE\GLM\DETAIL\TYPE_VEC4.HPP
D:\CPLUSPLUS\PROJECTS\RS_TEST2\INCLUDE\GLM\DETAIL\TYPE_VEC4.INL
D:\CPLUSPLUS\PROJECTS\RS_TEST2\INCLUDE\GLM\DETAIL\TYPE_MAT4X4.INL
D:\CPLUSPLUS\PROJECTS\RS_TEST2\INCLUDE\GLM\VEC3.HPP
D:\CPLUSPLUS\PROJECTS\RS_TEST2\INCLUDE\GLM\VEC4.HPP
D:\CPLUSPLUS\PROJECTS\RS_TEST2\INCLUDE\GLM\GTC\CONSTANTS.HPP
D:\CPLUSPLUS\PROJECTS\RS_TEST2\INCLUDE\GLM\GTC\CONSTANTS.INL
D:\CPLUSPLUS\PROJECTS\RS_TEST2\INCLUDE\GLM\GTC\QUATERNION.INL
D:\CPLUSPLUS\PROJECTS\RS_TEST2\INCLUDE\GLM\TRIGONOMETRIC.HPP
D:\CPLUSPLUS\PROJECTS\RS_TEST2\INCLUDE\GLM\DETAIL\FUNC_TRIGONOMETRIC.HPP
D:\CPLUSPLUS\PROJECTS\RS_TEST2\INCLUDE\GLM\DETAIL\FUNC_TRIGONOMETRIC.INL
D:\CPLUSPLUS\PROJECTS\RS_TEST2\INCLUDE\GLM\DETAIL\_VECTORIZE.HPP
D:\CPLUSPLUS\PROJECTS\RS_TEST2\INCLUDE\GLM\DETAIL\TYPE_VEC1.HPP
D:\CPLUSPLUS\PROJECTS\RS_TEST2\INCLUDE\GLM\DETAIL\TYPE_VEC1.INL
D:\CPLUSPLUS\PROJECTS\RS_TEST2\INCLUDE\GLM\DETAIL\TYPE_VEC2.HPP
D:\CPLUSPLUS\PROJECTS\RS_TEST2\INCLUDE\GLM\DETAIL\TYPE_VEC2.INL
D:\CPLUSPLUS\PROJECTS\RS_TEST2\INCLUDE\GLM\GEOMETRIC.HPP
D:\CPLUSPLUS\PROJECTS\RS_TEST2\INCLUDE\GLM\DETAIL\FUNC_GEOMETRIC.HPP
D:\CPLUSPLUS\PROJECTS\RS_TEST2\INCLUDE\GLM\DETAIL\FUNC_GEOMETRIC.INL
D:\CPLUSPLUS\PROJECTS\RS_TEST2\INCLUDE\GLM\DETAIL\FUNC_EXPONENTIAL.HPP
D:\CPLUSPLUS\PROJECTS\RS_TEST2\INCLUDE\GLM\DETAIL\FUNC_EXPONENTIAL.INL
D:\CPLUSPLUS\PROJECTS\RS_TEST2\INCLUDE\GLM\DETAIL\FUNC_VECTOR_RELATIONAL.HPP
D:\CPLUSPLUS\PROJECTS\RS_TEST2\INCLUDE\GLM\DETAIL\FUNC_VECTOR_RELATIONAL.INL
D:\CPLUSPLUS\PROJECTS\RS_TEST2\INCLUDE\GLM\DETAIL\FUNC_COMMON.HPP
D:\CPLUSPLUS\PROJECTS\RS_TEST2\INCLUDE\GLM\DETAIL\_FIXES.HPP
D:\CPLUSPLUS\PROJECTS\RS_TEST2\INCLUDE\GLM\DETAIL\FUNC_COMMON.INL
D:\CPLUSPLUS\PROJECTS\RS_TEST2\INCLUDE\GLM\EXPONENTIAL.HPP
D:\CPLUSPLUS\PROJECTS\RS_TEST2\INCLUDE\GLM\VEC2.HPP
D:\CPLUSPLUS\PROJECTS\RS_TEST2\INCLUDE\GLM\MAT2X2.HPP
D:\CPLUSPLUS\PROJECTS\RS_TEST2\INCLUDE\GLM\DETAIL\TYPE_MAT2X2.HPP
D:\CPLUSPLUS\PROJECTS\RS_TEST2\INCLUDE\GLM\DETAIL\TYPE_MAT2X2.INL
D:\CPLUSPLUS\PROJECTS\RS_TEST2\INCLUDE\GLM\MAT2X3.HPP
D:\CPLUSPLUS\PROJECTS\RS_TEST2\INCLUDE\GLM\DETAIL\TYPE_MAT2X3.HPP
D:\CPLUSPLUS\PROJECTS\RS_TEST2\INCLUDE\GLM\DETAIL\TYPE_MAT2X3.INL
D:\CPLUSPLUS\PROJECTS\RS_TEST2\INCLUDE\GLM\MAT2X4.HPP
D:\CPLUSPLUS\PROJECTS\RS_TEST2\INCLUDE\GLM\DETAIL\TYPE_MAT2X4.HPP
D:\CPLUSPLUS\PROJECTS\RS_TEST2\INCLUDE\GLM\DETAIL\TYPE_MAT2X4.INL
D:\CPLUSPLUS\PROJECTS\RS_TEST2\INCLUDE\GLM\MAT3X2.HPP
D:\CPLUSPLUS\PROJECTS\RS_TEST2\INCLUDE\GLM\DETAIL\TYPE_MAT3X2.HPP
D:\CPLUSPLUS\PROJECTS\RS_TEST2\INCLUDE\GLM\DETAIL\TYPE_MAT3X2.INL
D:\CPLUSPLUS\PROJECTS\RS_TEST2\INCLUDE\GLM\MAT3X4.HPP
D:\CPLUSPLUS\PROJECTS\RS_TEST2\INCLUDE\GLM\DETAIL\TYPE_MAT3X4.HPP
D:\CPLUSPLUS\PROJECTS\RS_TEST2\INCLUDE\GLM\DETAIL\TYPE_MAT3X4.INL
D:\CPLUSPLUS\PROJECTS\RS_TEST2\INCLUDE\GLM\MAT4X2.HPP
D:\CPLUSPLUS\PROJECTS\RS_TEST2\INCLUDE\GLM\DETAIL\TYPE_MAT4X2.HPP
D:\CPLUSPLUS\PROJECTS\RS_TEST2\INCLUDE\GLM\DETAIL\TYPE_MAT4X2.INL
D:\CPLUSPLUS\PROJECTS\RS_TEST2\INCLUDE\GLM\MAT4X3.HPP
D:\CPLUSPLUS\PROJECTS\RS_TEST2\INCLUDE\GLM\DETAIL\TYPE_MAT4X3.HPP
D:\CPLUSPLUS\PROJECTS\RS_TEST2\INCLUDE\GLM\DETAIL\TYPE_MAT4X3.INL
D:\CPLUSPLUS\PROJECTS\RS_TEST2\INCLUDE\GLM\GTC\TYPE_PTR.INL
D:\CPLUSPLUS\PROJECTS\RS_TEST2\INCLUDE\GLM\GTX\IO.HPP
D:\CPLUSPLUS\PROJECTS\RS_TEST2\INCLUDE\GLM\GLM.HPP
D:\CPLUSPLUS\PROJECTS\RS_TEST2\INCLUDE\GLM\COMMON.HPP
D:\CPLUSPLUS\PROJECTS\RS_TEST2\INCLUDE\GLM\PACKING.HPP
D:\CPLUSPLUS\PROJECTS\RS_TEST2\INCLUDE\GLM\DETAIL\FUNC_PACKING.HPP
D:\CPLUSPLUS\PROJECTS\RS_TEST2\INCLUDE\GLM\DETAIL\FUNC_PACKING.INL
D:\CPLUSPLUS\PROJECTS\RS_TEST2\INCLUDE\GLM\DETAIL\TYPE_HALF.HPP
D:\CPLUSPLUS\PROJECTS\RS_TEST2\INCLUDE\GLM\DETAIL\TYPE_HALF.INL
D:\CPLUSPLUS\PROJECTS\RS_TEST2\INCLUDE\GLM\MATRIX.HPP
D:\CPLUSPLUS\PROJECTS\RS_TEST2\INCLUDE\GLM\DETAIL\FUNC_MATRIX.HPP
D:\CPLUSPLUS\PROJECTS\RS_TEST2\INCLUDE\GLM\DETAIL\FUNC_MATRIX.INL
D:\CPLUSPLUS\PROJECTS\RS_TEST2\INCLUDE\GLM\VECTOR_RELATIONAL.HPP
D:\CPLUSPLUS\PROJECTS\RS_TEST2\INCLUDE\GLM\INTEGER.HPP
D:\CPLUSPLUS\PROJECTS\RS_TEST2\INCLUDE\GLM\DETAIL\FUNC_INTEGER.HPP
D:\CPLUSPLUS\PROJECTS\RS_TEST2\INCLUDE\GLM\DETAIL\FUNC_INTEGER.INL
D:\CPLUSPLUS\PROJECTS\RS_TEST2\INCLUDE\GLM\GTX\QUATERNION.HPP
D:\CPLUSPLUS\PROJECTS\RS_TEST2\INCLUDE\GLM\GTX\NORM.HPP
D:\CPLUSPLUS\PROJECTS\RS_TEST2\INCLUDE\GLM\GTX\NORM.INL
D:\CPLUSPLUS\PROJECTS\RS_TEST2\INCLUDE\GLM\GTX\QUATERNION.INL
D:\CPLUSPLUS\PROJECTS\RS_TEST2\INCLUDE\GLM\GTX\IO.INL
D:\MICROSOFT VISUAL STUDIO 14.0\VC\INCLUDE\IOMANIP
D:\CPLUSPLUS\PROJECTS\RS_TEST2\INCLUDE\GLM\GTX\TRANSFORM.HPP
D:\CPLUSPLUS\PROJECTS\RS_TEST2\INCLUDE\GLM\GTC\MATRIX_TRANSFORM.HPP
D:\CPLUSPLUS\PROJECTS\RS_TEST2\INCLUDE\GLM\GTC\MATRIX_TRANSFORM.INL
D:\CPLUSPLUS\PROJECTS\RS_TEST2\INCLUDE\GLM\GTX\TRANSFORM.INL
D:\CPLUSPLUS\PROJECTS\RS_TEST2\INCLUDE\GLM\GTX\TRANSFORM2.HPP
D:\CPLUSPLUS\PROJECTS\RS_TEST2\INCLUDE\GLM\GTX\TRANSFORM2.INL
D:\CPLUSPLUS\PROJECTS\RS_TEST2\INCLUDE\GLM\GTX\EULER_ANGLES.HPP
D:\CPLUSPLUS\PROJECTS\RS_TEST2\INCLUDE\GLM\GTX\EULER_ANGLES.INL
D:\CPLUSPLUS\PROJECTS\RS_TEST2\INCLUDE\CINDER\MATRIX22.H
D:\CPLUSPLUS\PROJECTS\RS_TEST2\INCLUDE\CINDER\MATRIX33.H
D:\CPLUSPLUS\PROJECTS\RS_TEST2\INCLUDE\CINDER\MATRIX44.H
D:\CPLUSPLUS\PROJECTS\RS_TEST2\INCLUDE\CINDER\VECTOR.H
D:\CPLUSPLUS\PROJECTS\RS_TEST2\INCLUDE\GLM\GTX\ROTATE_VECTOR.HPP
D:\CPLUSPLUS\PROJECTS\RS_TEST2\INCLUDE\GLM\GTX\ROTATE_VECTOR.INL
D:\CPLUSPLUS\PROJECTS\RS_TEST2\INCLUDE\GLM\GTC\MATRIX_INVERSE.HPP
D:\CPLUSPLUS\PROJECTS\RS_TEST2\INCLUDE\GLM\GTC\MATRIX_INVERSE.INL
D:\CPLUSPLUS\PROJECTS\RS_TEST2\INCLUDE\GLM\GTC\MATRIX_ACCESS.HPP
D:\CPLUSPLUS\PROJECTS\RS_TEST2\INCLUDE\GLM\GTC\MATRIX_ACCESS.INL
D:\CPLUSPLUS\PROJECTS\RS_TEST2\INCLUDE\GLM\GTX\MATRIX_TRANSFORM_2D.HPP
D:\CPLUSPLUS\PROJECTS\RS_TEST2\INCLUDE\GLM\GTX\MATRIX_TRANSFORM_2D.INL
D:\CPLUSPLUS\PROJECTS\RS_TEST2\INCLUDE\CINDER\CHANNEL.H
D:\CPLUSPLUS\PROJECTS\RS_TEST2\INCLUDE\CINDER\COLOR.H
D:\CPLUSPLUS\PROJECTS\RS_TEST2\INCLUDE\CINDER\CHANTRAITS.H
D:\CPLUSPLUS\PROJECTS\RS_TEST2\INCLUDE\BOOST\LOGIC\TRIBOOL.HPP
D:\CPLUSPLUS\PROJECTS\RS_TEST2\INCLUDE\BOOST\LOGIC\TRIBOOL_FWD.HPP
D:\CPLUSPLUS\PROJECTS\RS_TEST2\INCLUDE\BOOST\CONFIG.HPP
D:\CPLUSPLUS\PROJECTS\RS_TEST2\INCLUDE\BOOST\CONFIG\USER.HPP
D:\CPLUSPLUS\PROJECTS\RS_TEST2\INCLUDE\BOOST\CONFIG\SELECT_COMPILER_CONFIG.HPP
D:\CPLUSPLUS\PROJECTS\RS_TEST2\INCLUDE\BOOST\CONFIG\COMPILER\VISUALC.HPP
D:\CPLUSPLUS\PROJECTS\RS_TEST2\INCLUDE\BOOST\CONFIG\SELECT_STDLIB_CONFIG.HPP
D:\CPLUSPLUS\PROJECTS\RS_TEST2\INCLUDE\BOOST\CONFIG\STDLIB\DINKUMWARE.HPP
D:\CPLUSPLUS\PROJECTS\RS_TEST2\INCLUDE\BOOST\CONFIG\SELECT_PLATFORM_CONFIG.HPP
D:\CPLUSPLUS\PROJECTS\RS_TEST2\INCLUDE\BOOST\CONFIG\PLATFORM\WIN32.HPP
D:\CPLUSPLUS\PROJECTS\RS_TEST2\INCLUDE\BOOST\CONFIG\SUFFIX.HPP
D:\CPLUSPLUS\PROJECTS\RS_TEST2\INCLUDE\BOOST\DETAIL\WORKAROUND.HPP
D:\CPLUSPLUS\PROJECTS\RS_TEST2\INCLUDE\CINDER\DISPLAY.H
D:\CPLUSPLUS\PROJECTS\RS_TEST2\INCLUDE\CINDER\SIGNALS.H
D:\CPLUSPLUS\PROJECTS\RS_TEST2\INCLUDE\CINDER\CINDERASSERT.H
D:\CPLUSPLUS\PROJECTS\RS_TEST2\INCLUDE\CINDER\CURRENTFUNCTION.H
D:\CPLUSPLUS\PROJECTS\RS_TEST2\INCLUDE\CINDER\MSW\CINDERWINDOWSFWD.H
D:\CPLUSPLUS\PROJECTS\RS_TEST2\INCLUDE\CINDER\APP\WINDOW.H
D:\CPLUSPLUS\PROJECTS\RS_TEST2\INCLUDE\CINDER\RECT.H
D:\CPLUSPLUS\PROJECTS\RS_TEST2\INCLUDE\CINDER\APP\MOUSEEVENT.H
D:\CPLUSPLUS\PROJECTS\RS_TEST2\INCLUDE\CINDER\APP\EVENT.H
D:\CPLUSPLUS\PROJECTS\RS_TEST2\INCLUDE\CINDER\APP\TOUCHEVENT.H
D:\CPLUSPLUS\PROJECTS\RS_TEST2\INCLUDE\CINDER\APP\KEYEVENT.H
D:\CPLUSPLUS\PROJECTS\RS_TEST2\INCLUDE\CINDER\APP\FILEDROPEVENT.H
D:\CPLUSPLUS\PROJECTS\RS_TEST2\INCLUDE\CINDER\TIMER.H
D:\CPLUSPLUS\PROJECTS\RS_TEST2\INCLUDE\CINDER\THREAD.H
D:\MICROSOFT VISUAL STUDIO 14.0\VC\INCLUDE\THREAD
D:\MICROSOFT VISUAL STUDIO 14.0\VC\INCLUDE\THR\XTHREAD
D:\MICROSOFT VISUAL STUDIO 14.0\VC\INCLUDE\THR\XTIME
D:\MICROSOFT VISUAL STUDIO 14.0\VC\INCLUDE\THR\XTHREADS.H
D:\MICROSOFT VISUAL STUDIO 14.0\VC\INCLUDE\MUTEX
D:\MICROSOFT VISUAL STUDIO 14.0\VC\INCLUDE\CONDITION_VARIABLE
D:\MICROSOFT VISUAL STUDIO 14.0\VC\INCLUDE\FUTURE
D:\MICROSOFT VISUAL STUDIO 14.0\VC\INCLUDE\PPLTASKS.H
D:\MICROSOFT VISUAL STUDIO 14.0\VC\INCLUDE\PPLWIN.H
D:\MICROSOFT VISUAL STUDIO 14.0\VC\INCLUDE\PPLINTERFACE.H
D:\MICROSOFT VISUAL STUDIO 14.0\VC\INCLUDE\ATOMIC
D:\MICROSOFT VISUAL STUDIO 14.0\VC\INCLUDE\XATOMIC.H
D:\MICROSOFT VISUAL STUDIO 14.0\VC\INCLUDE\XXATOMIC
D:\MICROSOFT VISUAL STUDIO 14.0\VC\INCLUDE\PPLTASKSCHEDULER.H
D:\MICROSOFT VISUAL STUDIO 14.0\VC\INCLUDE\PPLCANCELLATION_TOKEN.H
^D:\CPLUSPLUS\PROJECTS\RS_TEST2\RS_TEST3\CONFIG.CPP
D:\MICROSOFT VISUAL STUDIO 14.0\VC\INCLUDE\FSTREAM
D:\CPLUSPLUS\PROJECTS\RS_TEST2\INCLUDE\CINDER\CAPTURE.H
D:\CPLUSPLUS\PROJECTS\RS_TEST2\INCLUDE\CINDER\LOG.H
D:\CPLUSPLUS\PROJECTS\RS_TEST2\INCLUDE\CINDER\SYSTEM.H
C:\PROGRAM FILES (X86)\INTEL REALSENSE SDK 2.0\THIRD-PARTY\GLFW-IMGUI\INCLUDE\GLFW\GLFW3.H
C:\PROGRAM FILES (X86)\WINDOWS KITS\8.1\INCLUDE\UM\GL\GL.H
C:\PROGRAM FILES (X86)\WINDOWS KITS\8.1\INCLUDE\SHARED\WINAPIFAMILY.H
C:\PROGRAM FILES (X86)\WINDOWS KITS\8.1\INCLUDE\UM\GL\GLU.H
C:\PROGRAM FILES (X86)\INTEL REALSENSE SDK 2.0\THIRD-PARTY\STB_EASY_FONT.H
C:\PROGRAM FILES (X86)\WINDOWS KITS\10\INCLUDE\10.0.10240.0\UCRT\MATH.H
D:\MICROSOFT VISUAL STUDIO 14.0\VC\INCLUDE\STRING
D:\MICROSOFT VISUAL STUDIO 14.0\VC\INCLUDE\ISTREAM
D:\MICROSOFT VISUAL STUDIO 14.0\VC\INCLUDE\OSTREAM
D:\MICROSOFT VISUAL STUDIO 14.0\VC\INCLUDE\IOS
D:\MICROSOFT VISUAL STUDIO 14.0\VC\INCLUDE\XLOCNUM
D:\MICROSOFT VISUAL STUDIO 14.0\VC\INCLUDE\CLIMITS
D:\MICROSOFT VISUAL STUDIO 14.0\VC\INCLUDE\YVALS.H
D:\MICROSOFT VISUAL STUDIO 14.0\VC\INCLUDE\XKEYCHECK.H
D:\MICROSOFT VISUAL STUDIO 14.0\VC\INCLUDE\CRTDEFS.H
D:\MICROSOFT VISUAL STUDIO 14.0\VC\INCLUDE\VCRUNTIME.H
D:\MICROSOFT VISUAL STUDIO 14.0\VC\INCLUDE\SAL.H
D:\MICROSOFT VISUAL STUDIO 14.0\VC\INCLUDE\CONCURRENCYSAL.H
D:\MICROSOFT VISUAL STUDIO 14.0\VC\INCLUDE\VADEFS.H
C:\PROGRAM FILES (X86)\WINDOWS KITS\10\INCLUDE\10.0.10240.0\UCRT\CORECRT.H
D:\MICROSOFT VISUAL STUDIO 14.0\VC\INCLUDE\USE_ANSI.H
D:\MICROSOFT VISUAL STUDIO 14.0\VC\INCLUDE\LIMITS.H
D:\MICROSOFT VISUAL STUDIO 14.0\VC\INCLUDE\CMATH
D:\MICROSOFT VISUAL STUDIO 14.0\VC\INCLUDE\XTGMATH.H
D:\MICROSOFT VISUAL STUDIO 14.0\VC\INCLUDE\XTR1COMMON
D:\MICROSOFT VISUAL STUDIO 14.0\VC\INCLUDE\CSTDLIB
C:\PROGRAM FILES (X86)\WINDOWS KITS\10\INCLUDE\10.0.10240.0\UCRT\STDLIB.H
C:\PROGRAM FILES (X86)\WINDOWS KITS\10\INCLUDE\10.0.10240.0\UCRT\CORECRT_MALLOC.H
C:\PROGRAM FILES (X86)\WINDOWS KITS\10\INCLUDE\10.0.10240.0\UCRT\CORECRT_SEARCH.H
C:\PROGRAM FILES (X86)\WINDOWS KITS\10\INCLUDE\10.0.10240.0\UCRT\STDDEF.H
C:\PROGRAM FILES (X86)\WINDOWS KITS\10\INCLUDE\10.0.10240.0\UCRT\CORECRT_WSTDLIB.H
D:\MICROSOFT VISUAL STUDIO 14.0\VC\INCLUDE\CSTDIO
C:\PROGRAM FILES (X86)\WINDOWS KITS\10\INCLUDE\10.0.10240.0\UCRT\STDIO.H
C:\PROGRAM FILES (X86)\WINDOWS KITS\10\INCLUDE\10.0.10240.0\UCRT\CORECRT_WSTDIO.H
C:\PROGRAM FILES (X86)\WINDOWS KITS\10\INCLUDE\10.0.10240.0\UCRT\CORECRT_STDIO_CONFIG.H
D:\MICROSOFT VISUAL STUDIO 14.0\VC\INCLUDE\STREAMBUF
D:\MICROSOFT VISUAL STUDIO 14.0\VC\INCLUDE\XIOSBASE
D:\MICROSOFT VISUAL STUDIO 14.0\VC\INCLUDE\XLOCALE
D:\MICROSOFT VISUAL STUDIO 14.0\VC\INCLUDE\CSTRING
C:\PROGRAM FILES (X86)\WINDOWS KITS\10\INCLUDE\10.0.10240.0\UCRT\STRING.H
C:\PROGRAM FILES (X86)\WINDOWS KITS\10\INCLUDE\10.0.10240.0\UCRT\CORECRT_MEMORY.H
C:\PROGRAM FILES (X86)\WINDOWS KITS\10\INCLUDE\10.0.10240.0\UCRT\CORECRT_MEMCPY_S.H
C:\PROGRAM FILES (X86)\WINDOWS KITS\10\INCLUDE\10.0.10240.0\UCRT\ERRNO.H
D:\MICROSOFT VISUAL STUDIO 14.0\VC\INCLUDE\VCRUNTIME_STRING.H
C:\PROGRAM FILES (X86)\WINDOWS KITS\10\INCLUDE\10.0.10240.0\UCRT\CORECRT_WSTRING.H
D:\MICROSOFT VISUAL STUDIO 14.0\VC\INCLUDE\STDEXCEPT
D:\MICROSOFT VISUAL STUDIO 14.0\VC\INCLUDE\EXCEPTION
D:\MICROSOFT VISUAL STUDIO 14.0\VC\INCLUDE\TYPE_TRAITS
D:\MICROSOFT VISUAL STUDIO 14.0\VC\INCLUDE\XSTDDEF
D:\MICROSOFT VISUAL STUDIO 14.0\VC\INCLUDE\CSTDDEF
D:\MICROSOFT VISUAL STUDIO 14.0\VC\INCLUDE\INITIALIZER_LIST
C:\PROGRAM FILES (X86)\WINDOWS KITS\10\INCLUDE\10.0.10240.0\UCRT\MALLOC.H
D:\MICROSOFT VISUAL STUDIO 14.0\VC\INCLUDE\VCRUNTIME_EXCEPTION.H
D:\MICROSOFT VISUAL STUDIO 14.0\VC\INCLUDE\EH.H
C:\PROGRAM FILES (X86)\WINDOWS KITS\10\INCLUDE\10.0.10240.0\UCRT\CORECRT_TERMINATE.H
D:\MICROSOFT VISUAL STUDIO 14.0\VC\INCLUDE\XSTRING
D:\MICROSOFT VISUAL STUDIO 14.0\VC\INCLUDE\XMEMORY0
D:\MICROSOFT VISUAL STUDIO 14.0\VC\INCLUDE\CSTDINT
D:\MICROSOFT VISUAL STUDIO 14.0\VC\INCLUDE\STDINT.H
D:\MICROSOFT VISUAL STUDIO 14.0\VC\INCLUDE\LIMITS
D:\MICROSOFT VISUAL STUDIO 14.0\VC\INCLUDE\YMATH.H
D:\MICROSOFT VISUAL STUDIO 14.0\VC\INCLUDE\CFLOAT
C:\PROGRAM FILES (X86)\WINDOWS KITS\10\INCLUDE\10.0.10240.0\UCRT\FLOAT.H
D:\MICROSOFT VISUAL STUDIO 14.0\VC\INCLUDE\CWCHAR
C:\PROGRAM FILES (X86)\WINDOWS KITS\10\INCLUDE\10.0.10240.0\UCRT\WCHAR.H
C:\PROGRAM FILES (X86)\WINDOWS KITS\10\INCLUDE\10.0.10240.0\UCRT\CORECRT_WCONIO.H
C:\PROGRAM FILES (X86)\WINDOWS KITS\10\INCLUDE\10.0.10240.0\UCRT\CORECRT_WCTYPE.H
C:\PROGRAM FILES (X86)\WINDOWS KITS\10\INCLUDE\10.0.10240.0\UCRT\CORECRT_WDIRECT.H
C:\PROGRAM FILES (X86)\WINDOWS KITS\10\INCLUDE\10.0.10240.0\UCRT\CORECRT_WIO.H
C:\PROGRAM FILES (X86)\WINDOWS KITS\10\INCLUDE\10.0.10240.0\UCRT\CORECRT_SHARE.H
C:\PROGRAM FILES (X86)\WINDOWS KITS\10\INCLUDE\10.0.10240.0\UCRT\CORECRT_WPROCESS.H
C:\PROGRAM FILES (X86)\WINDOWS KITS\10\INCLUDE\10.0.10240.0\UCRT\CORECRT_WTIME.H
C:\PROGRAM FILES (X86)\WINDOWS KITS\10\INCLUDE\10.0.10240.0\UCRT\SYS\STAT.H
C:\PROGRAM FILES (X86)\WINDOWS KITS\10\INCLUDE\10.0.10240.0\UCRT\SYS\TYPES.H
D:\MICROSOFT VISUAL STUDIO 14.0\VC\INCLUDE\NEW
D:\MICROSOFT VISUAL STUDIO 14.0\VC\INCLUDE\VCRUNTIME_NEW.H
D:\MICROSOFT VISUAL STUDIO 14.0\VC\INCLUDE\XUTILITY
D:\MICROSOFT VISUAL STUDIO 14.0\VC\INCLUDE\UTILITY
D:\MICROSOFT VISUAL STUDIO 14.0\VC\INCLUDE\IOSFWD
C:\PROGRAM FILES (X86)\WINDOWS KITS\10\INCLUDE\10.0.10240.0\UCRT\CRTDBG.H
D:\MICROSOFT VISUAL STUDIO 14.0\VC\INCLUDE\VCRUNTIME_NEW_DEBUG.H
D:\MICROSOFT VISUAL STUDIO 14.0\VC\INCLUDE\XATOMIC0.H
D:\MICROSOFT VISUAL STUDIO 14.0\VC\INCLUDE\INTRIN.H
D:\MICROSOFT VISUAL STUDIO 14.0\VC\INCLUDE\SETJMP.H
D:\MICROSOFT VISUAL STUDIO 14.0\VC\INCLUDE\IMMINTRIN.H
D:\MICROSOFT VISUAL STUDIO 14.0\VC\INCLUDE\WMMINTRIN.H
D:\MICROSOFT VISUAL STUDIO 14.0\VC\INCLUDE\NMMINTRIN.H
D:\MICROSOFT VISUAL STUDIO 14.0\VC\INCLUDE\SMMINTRIN.H
D:\MICROSOFT VISUAL STUDIO 14.0\VC\INCLUDE\TMMINTRIN.H
D:\MICROSOFT VISUAL STUDIO 14.0\VC\INCLUDE\PMMINTRIN.H
D:\MICROSOFT VISUAL STUDIO 14.0\VC\INCLUDE\EMMINTRIN.H
D:\MICROSOFT VISUAL STUDIO 14.0\VC\INCLUDE\XMMINTRIN.H
D:\MICROSOFT VISUAL STUDIO 14.0\VC\INCLUDE\MMINTRIN.H
D:\MICROSOFT VISUAL STUDIO 14.0\VC\INCLUDE\AMMINTRIN.H
D:\MICROSOFT VISUAL STUDIO 14.0\VC\INCLUDE\MM3DNOW.H
D:\MICROSOFT VISUAL STUDIO 14.0\VC\INCLUDE\TYPEINFO
D:\MICROSOFT VISUAL STUDIO 14.0\VC\INCLUDE\VCRUNTIME_TYPEINFO.H
D:\MICROSOFT VISUAL STUDIO 14.0\VC\INCLUDE\XLOCINFO
D:\MICROSOFT VISUAL STUDIO 14.0\VC\INCLUDE\XLOCINFO.H
C:\PROGRAM FILES (X86)\WINDOWS KITS\10\INCLUDE\10.0.10240.0\UCRT\CTYPE.H
C:\PROGRAM FILES (X86)\WINDOWS KITS\10\INCLUDE\10.0.10240.0\UCRT\LOCALE.H
D:\MICROSOFT VISUAL STUDIO 14.0\VC\INCLUDE\XFACET
D:\MICROSOFT VISUAL STUDIO 14.0\VC\INCLUDE\SYSTEM_ERROR
D:\MICROSOFT VISUAL STUDIO 14.0\VC\INCLUDE\CERRNO
C:\PROGRAM FILES (X86)\WINDOWS KITS\10\INCLUDE\10.0.10240.0\UCRT\SHARE.H
D:\MICROSOFT VISUAL STUDIO 14.0\VC\INCLUDE\IOSTREAM
